./gen_graph_opentuner_results.py output-ice-matmul.job.3067017 --title "Search" --ymax 8 --ymin 0.0 --cc "gcc" --fig '.png'
./gen_graph_opentuner_results.py output-ice-stencil.job.3067012 --title "Search" --ymax 6 --ymin 3.3 --cc "gcc,icc" --fig '.png'


